 [1] "Piscine myocarditis-like|"    "Rosellinia necatrix|"        
 [3] "Saccharomyces cerevisiae|"    "Marine RNA|"                 
 [5] "Human immunodeficiency|"      "Molluscum contagiosum|"      
 [7] "Ictalurid herpesvirus|"       "Bacillus phage|"             
 [9] "Caviid herpesvirus|"          "Broad bean|"                 
[11] "Pandoravirus salinus|"        "Shamonda virus|"             
[13] "Bovine viral|"                "Oyster mushroom|"            
[15] "Synechococcus phage|"         "Encephalomyocarditis virus|" 
[17] "Murine osteosarcoma|"         "White clover|"               
[19] "Enterobacteria phage|"        "BeAn 58058|"                 
[21] "Aotine herpesvirus|"          "Saimiriine herpesvirus|"     
[23] "Hepatitis C|"                 "Rabbit fibroma|"             
[25] "Phytophthora infestans|"      "Fathead minnow|"             
[27] "Abelson murine|"              "Macaca nemestrina|"          
[29] "Choristoneura occidentalis|"  "Cotesia congregata|"         
[31] "Hibiscus latent|"             "Abalone herpesvirus|"        
[33] "Cyprinid herpesvirus|"        "Rabbit vesivirus|"           
[35] "Volepox virus|"               "Primula malacoides|"         
[37] "Human endogenous|"            "Alcelaphine herpesvirus|"    
[39] "Red clover|"                  "Taterapox virus|"            
[41] "Human herpesvirus|"           "Torulaspora delbrueckii|"    
[43] "Paramecium bursaria|"         "Orgyia pseudotsugata|"       
[45] "Hop trefoil|"                 "Aureococcus anophagefferens|"
[47] "Pestivirus giraffe-1|"        "Woolly monkey|"              
[49] "Glypta fumiferanae|"         
 [1] "Aureococcus anophagefferens|" "Cyprinid herpesvirus|"       
 [3] "Propionibacterium phage|"     "Cercopithecine herpesvirus|" 
 [5] "Aspergillus foetidus|"        "Hyposoter fugitivus|"        
 [7] "Arachis pintoi|"              "Murine osteosarcoma|"        
 [9] "Red clover|"                  "Rosellinia necatrix|"        
[11] "Human herpesvirus|"           "Woolly monkey|"              
[13] "Cotesia congregata|"          "Marine RNA|"                 
[15] "Frog virus|"                  "Hop trefoil|"                
[17] "Human endogenous|"            "Abelson murine|"             
[19] "Dill cryptic|"                "Choristoneura occidentalis|" 
[21] "Torulaspora delbrueckii|"     "Fathead minnow|"             
[23] "White clover|"                "Glypta fumiferanae|"         
[25] "Chrysochromulina ericina|"    "Aotine herpesvirus|"         
[27] "Ictalurid herpesvirus|"       "Bacillus phage|"             
[29] "Rabbit vesivirus|"            "Ostreococcus lucimarinus|"   
[31] "Encephalomyocarditis virus|"  "Pandoravirus dulcis|"        
[33] "Macaca nemestrina|"           "Alcelaphine herpesvirus|"    
[35] "Hepatitis C|"                 "Phytophthora infestans|"     
[37] "Hibiscus latent|"             "Oyster mushroom|"            
[39] "Pandoravirus salinus|"        "Abalone herpesvirus|"        
[41] "Enterobacteria phage|"        "Gallid herpesvirus|"         
[43] "BeAn 58058|"                  "Orgyia pseudotsugata|"       
[45] "Pestivirus giraffe-1|"        "Primula malacoides|"         
[47] "Carp picornavirus|"           "Broad bean|"                 
[49] "Piscine myocarditis-like|"    "Saccharomyces cerevisiae|"   
[51] "Ovine herpesvirus|"          
[1] 63
 [1] "Hepatitis C|"                 "Glypta fumiferanae|"         
 [3] "Cyprinid herpesvirus|"        "Bacillus phage|"             
 [5] "Enterobacteria phage|"        "Dill cryptic|"               
 [7] "Alcelaphine herpesvirus|"     "Human endogenous|"           
 [9] "Abelson murine|"              "Murine osteosarcoma|"        
[11] "Woolly monkey|"               "BeAn 58058|"                 
[13] "Pandoravirus salinus|"        "Pestivirus giraffe-1|"       
[15] "Ictalurid herpesvirus|"       "Piscine myocarditis-like|"   
[17] "Saccharomyces cerevisiae|"    "Orgyia pseudotsugata|"       
[19] "Phytophthora infestans|"      "Torulaspora delbrueckii|"    
[21] "Choristoneura occidentalis|"  "Encephalomyocarditis virus|" 
[23] "Fathead minnow|"              "Hibiscus latent|"            
[25] "Macaca nemestrina|"           "Primula malacoides|"         
[27] "Pandoravirus dulcis|"         "Rabbit vesivirus|"           
[29] "Hop trefoil|"                 "Marine RNA|"                 
[31] "Rosellinia necatrix|"         "White clover|"               
[33] "Aureococcus anophagefferens|" "Cotesia congregata|"         
[35] "Abalone herpesvirus|"         "Human immunodeficiency|"     
[37] "Oyster mushroom|"             "Red clover|"                 
[39] "Broad bean|"                  "Aotine herpesvirus|"         
[41] "Human herpesvirus|"           "Propionibacterium phage|"    
[43] "Bovine viral|"                "Ovine herpesvirus|"          
[45] "Saimiriine herpesvirus|"      "Rabbit fibroma|"             
[47] "Paramecium bursaria|"         "Molluscum contagiosum|"      
[49] "Ostreococcus lucimarinus|"    "Chrysochromulina ericina|"   
[51] "Gallid herpesvirus|"          "Cercopithecine herpesvirus|" 
[53] "Aspergillus foetidus|"        "Carp picornavirus|"          
[55] "Synechococcus phage|"         "Frog virus|"                 
[57] "Taterapox virus|"             "Hyposoter fugitivus|"        
[59] "Arachis pintoi|"              "Shamonda virus|"             
[61] "Volepox virus|"               "Caviid herpesvirus|"         
 [1] "Hepatitis C|"                 "Glypta fumiferanae|"         
 [3] "Cyprinid herpesvirus|"        "Bacillus phage|"             
 [5] "Enterobacteria phage|"        "Dill cryptic|"               
 [7] "Alcelaphine herpesvirus|"     "Human endogenous|"           
 [9] "Abelson murine|"              "Murine osteosarcoma|"        
[11] "Woolly monkey|"               "BeAn 58058|"                 
[13] "Pandoravirus salinus|"        "Pestivirus giraffe-1|"       
[15] "Ictalurid herpesvirus|"       "Piscine myocarditis-like|"   
[17] "Saccharomyces cerevisiae|"    "Orgyia pseudotsugata|"       
[19] "Phytophthora infestans|"      "Torulaspora delbrueckii|"    
[21] "Choristoneura occidentalis|"  "Encephalomyocarditis virus|" 
[23] "Fathead minnow|"              "Hibiscus latent|"            
[25] "Macaca nemestrina|"           "Primula malacoides|"         
[27] "Pandoravirus dulcis|"         "Rabbit vesivirus|"           
[29] "Hop trefoil|"                 "Marine RNA|"                 
[31] "Rosellinia necatrix|"         "White clover|"               
[33] "Aureococcus anophagefferens|" "Cotesia congregata|"         
[35] "Abalone herpesvirus|"         "Human immunodeficiency|"     
[37] "Oyster mushroom|"             "Red clover|"                 
[39] "Broad bean|"                  "Aotine herpesvirus|"         
[41] "Human herpesvirus|"           "Propionibacterium phage|"    
[43] "Bovine viral|"                "Ovine herpesvirus|"          
[45] "Saimiriine herpesvirus|"      "Rabbit fibroma|"             
[47] "Paramecium bursaria|"         "Molluscum contagiosum|"      
[49] "Ostreococcus lucimarinus|"    "Chrysochromulina ericina|"   
[51] "Gallid herpesvirus|"          "Cercopithecine herpesvirus|" 
[53] "Aspergillus foetidus|"        "Carp picornavirus|"          
[55] "Synechococcus phage|"         "Frog virus|"                 
[57] "Taterapox virus|"             "Hyposoter fugitivus|"        
[59] "Arachis pintoi|"              "Shamonda virus|"             
[61] "Volepox virus|"               "Caviid herpesvirus|"         
 [1] "Hepatitis C|"                 "Glypta fumiferanae|"         
 [3] "Cyprinid herpesvirus|"        "Bacillus phage|"             
 [5] "Enterobacteria phage|"        "Dill cryptic|"               
 [7] "Alcelaphine herpesvirus|"     "Human endogenous|"           
 [9] "Abelson murine|"              "Murine osteosarcoma|"        
[11] "Woolly monkey|"               "BeAn 58058|"                 
[13] "Pandoravirus salinus|"        "Pestivirus giraffe-1|"       
[15] "Ictalurid herpesvirus|"       "Piscine myocarditis-like|"   
[17] "Saccharomyces cerevisiae|"    "Orgyia pseudotsugata|"       
[19] "Phytophthora infestans|"      "Torulaspora delbrueckii|"    
[21] "Choristoneura occidentalis|"  "Encephalomyocarditis virus|" 
[23] "Fathead minnow|"              "Hibiscus latent|"            
[25] "Macaca nemestrina|"           "Primula malacoides|"         
[27] "Pandoravirus dulcis|"         "Rabbit vesivirus|"           
[29] "Hop trefoil|"                 "Marine RNA|"                 
[31] "Rosellinia necatrix|"         "White clover|"               
[33] "Aureococcus anophagefferens|" "Cotesia congregata|"         
[35] "Abalone herpesvirus|"         "Human immunodeficiency|"     
[37] "Oyster mushroom|"             "Red clover|"                 
[39] "Broad bean|"                  "Aotine herpesvirus|"         
[41] "Human herpesvirus|"           "Propionibacterium phage|"    
[43] "Bovine viral|"                "Ovine herpesvirus|"          
[45] "Saimiriine herpesvirus|"      "Rabbit fibroma|"             
[47] "Paramecium bursaria|"         "Molluscum contagiosum|"      
[49] "Ostreococcus lucimarinus|"    "Chrysochromulina ericina|"   
[51] "Gallid herpesvirus|"          "Cercopithecine herpesvirus|" 
[53] "Aspergillus foetidus|"        "Carp picornavirus|"          
[55] "Synechococcus phage|"         "Frog virus|"                 
[57] "Taterapox virus|"             "Hyposoter fugitivus|"        
[59] "Arachis pintoi|"              "Shamonda virus|"             
[61] "Volepox virus|"               "Caviid herpesvirus|"         
null device 
          1 
 [1] "Hepatitis C|"                 "Glypta fumiferanae|"         
 [3] "Cyprinid herpesvirus|"        "Bacillus phage|"             
 [5] "Enterobacteria phage|"        "Dill cryptic|"               
 [7] "Alcelaphine herpesvirus|"     "Human endogenous|"           
 [9] "Abelson murine|"              "Murine osteosarcoma|"        
[11] "Woolly monkey|"               "BeAn 58058|"                 
[13] "Pandoravirus salinus|"        "Pestivirus giraffe-1|"       
[15] "Ictalurid herpesvirus|"       "Piscine myocarditis-like|"   
[17] "Saccharomyces cerevisiae|"    "Orgyia pseudotsugata|"       
[19] "Phytophthora infestans|"      "Torulaspora delbrueckii|"    
[21] "Choristoneura occidentalis|"  "Encephalomyocarditis virus|" 
[23] "Fathead minnow|"              "Hibiscus latent|"            
[25] "Macaca nemestrina|"           "Primula malacoides|"         
[27] "Pandoravirus dulcis|"         "Rabbit vesivirus|"           
[29] "Hop trefoil|"                 "Marine RNA|"                 
[31] "Rosellinia necatrix|"         "White clover|"               
[33] "Aureococcus anophagefferens|" "Cotesia congregata|"         
[35] "Abalone herpesvirus|"         "Human immunodeficiency|"     
[37] "Oyster mushroom|"             "Red clover|"                 
[39] "Broad bean|"                  "Aotine herpesvirus|"         
[41] "Human herpesvirus|"           "Propionibacterium phage|"    
[43] "Bovine viral|"                "Ovine herpesvirus|"          
[45] "Saimiriine herpesvirus|"      "Rabbit fibroma|"             
[47] "Paramecium bursaria|"         "Molluscum contagiosum|"      
[49] "Ostreococcus lucimarinus|"    "Chrysochromulina ericina|"   
[51] "Gallid herpesvirus|"          "Cercopithecine herpesvirus|" 
[53] "Aspergillus foetidus|"        "Carp picornavirus|"          
[55] "Synechococcus phage|"         "Frog virus|"                 
[57] "Taterapox virus|"             "Hyposoter fugitivus|"        
[59] "Arachis pintoi|"              "Shamonda virus|"             
[61] "Volepox virus|"               "Caviid herpesvirus|"         
 [1] "Hepatitis C|"                 "Glypta fumiferanae|"         
 [3] "Cyprinid herpesvirus|"        "Bacillus phage|"             
 [5] "Enterobacteria phage|"        "Dill cryptic|"               
 [7] "Alcelaphine herpesvirus|"     "Human endogenous|"           
 [9] "Abelson murine|"              "Murine osteosarcoma|"        
[11] "Woolly monkey|"               "BeAn 58058|"                 
[13] "Pandoravirus salinus|"        "Pestivirus giraffe-1|"       
[15] "Ictalurid herpesvirus|"       "Piscine myocarditis-like|"   
[17] "Saccharomyces cerevisiae|"    "Orgyia pseudotsugata|"       
[19] "Phytophthora infestans|"      "Torulaspora delbrueckii|"    
[21] "Choristoneura occidentalis|"  "Encephalomyocarditis virus|" 
[23] "Fathead minnow|"              "Hibiscus latent|"            
[25] "Macaca nemestrina|"           "Primula malacoides|"         
[27] "Pandoravirus dulcis|"         "Rabbit vesivirus|"           
[29] "Hop trefoil|"                 "Marine RNA|"                 
[31] "Rosellinia necatrix|"         "White clover|"               
[33] "Aureococcus anophagefferens|" "Cotesia congregata|"         
[35] "Abalone herpesvirus|"         "Human immunodeficiency|"     
[37] "Oyster mushroom|"             "Red clover|"                 
[39] "Broad bean|"                  "Aotine herpesvirus|"         
[41] "Human herpesvirus|"           "Propionibacterium phage|"    
[43] "Bovine viral|"                "Ovine herpesvirus|"          
[45] "Saimiriine herpesvirus|"      "Rabbit fibroma|"             
[47] "Paramecium bursaria|"         "Molluscum contagiosum|"      
[49] "Ostreococcus lucimarinus|"    "Chrysochromulina ericina|"   
[51] "Gallid herpesvirus|"          "Cercopithecine herpesvirus|" 
[53] "Aspergillus foetidus|"        "Carp picornavirus|"          
[55] "Synechococcus phage|"         "Frog virus|"                 
[57] "Taterapox virus|"             "Hyposoter fugitivus|"        
[59] "Arachis pintoi|"              "Shamonda virus|"             
[61] "Volepox virus|"               "Caviid herpesvirus|"         
 [1] "Hepatitis C|"                 "Glypta fumiferanae|"         
 [3] "Cyprinid herpesvirus|"        "Bacillus phage|"             
 [5] "Enterobacteria phage|"        "Dill cryptic|"               
 [7] "Alcelaphine herpesvirus|"     "Human endogenous|"           
 [9] "Abelson murine|"              "Murine osteosarcoma|"        
[11] "Woolly monkey|"               "BeAn 58058|"                 
[13] "Pandoravirus salinus|"        "Pestivirus giraffe-1|"       
[15] "Ictalurid herpesvirus|"       "Piscine myocarditis-like|"   
[17] "Saccharomyces cerevisiae|"    "Orgyia pseudotsugata|"       
[19] "Phytophthora infestans|"      "Torulaspora delbrueckii|"    
[21] "Choristoneura occidentalis|"  "Encephalomyocarditis virus|" 
[23] "Fathead minnow|"              "Hibiscus latent|"            
[25] "Macaca nemestrina|"           "Primula malacoides|"         
[27] "Pandoravirus dulcis|"         "Rabbit vesivirus|"           
[29] "Hop trefoil|"                 "Marine RNA|"                 
[31] "Rosellinia necatrix|"         "White clover|"               
[33] "Aureococcus anophagefferens|" "Cotesia congregata|"         
[35] "Abalone herpesvirus|"         "Human immunodeficiency|"     
[37] "Oyster mushroom|"             "Red clover|"                 
[39] "Broad bean|"                  "Aotine herpesvirus|"         
[41] "Human herpesvirus|"           "Propionibacterium phage|"    
[43] "Bovine viral|"                "Ovine herpesvirus|"          
[45] "Saimiriine herpesvirus|"      "Rabbit fibroma|"             
[47] "Paramecium bursaria|"         "Molluscum contagiosum|"      
[49] "Ostreococcus lucimarinus|"    "Chrysochromulina ericina|"   
[51] "Gallid herpesvirus|"          "Cercopithecine herpesvirus|" 
[53] "Aspergillus foetidus|"        "Carp picornavirus|"          
[55] "Synechococcus phage|"         "Frog virus|"                 
[57] "Taterapox virus|"             "Hyposoter fugitivus|"        
[59] "Arachis pintoi|"              "Shamonda virus|"             
[61] "Volepox virus|"               "Caviid herpesvirus|"         
null device 
          1 
