Human endogenous|	18.5942	9472	0.0000	98.6909	9348	889	877	0.4485	8	33.84
Shamonda virus|	0.1597	927	0.0000	7.9827	74	1	1	0.6986	0	0.54
Pandoravirus salinus|	0.0002	2473870	0.0000	0.0082	204	4	2	0.5162	0	0.03
Fathead minnow|	1.1257	7934	0.0000	1.5377	122	42	48	0.0580	0	9.78
Human immunodeficiency|	0.0220	9181	0.0000	2.2002	202	1	1	0.3861	0	0.15
Alcelaphine herpesvirus|	0.0007	137090	0.0000	0.0722	99	0	1	0.5051	0	0.03
Aureococcus anophagefferens|	0.0005	370920	0.0000	0.0280	104	1	1	0.3283	0	0.03
Hibiscus latent|	0.2298	6485	0.0000	2.0355	132	6	9	0.1182	0	1.74
Rabbit fibroma|	0.0019	159857	0.0000	0.0757	121	2	1	0.2126	0	0.07
Broad bean|	0.0837	2293	0.0000	4.3611	100	0	2	0.0746	0	0.40
Murine osteosarcoma|	5.3251	3811	0.0000	10.4959	400	104	99	0.5618	0	21.79
Abelson murine|	0.1369	5894	0.0000	7.2447	427	4	4	0.5539	0	0.55
Bovine viral|	0.0159	12573	0.0000	1.1771	148	1	1	0.5000	0	0.15
Cotesia congregata|	0.0063	15959	0.0000	0.6266	100	1	0	0.4851	0	0.08
Human herpesvirus|	0.0006	159322	0.0000	0.0603	96	1	0	0.3366	0	0.02
Torulaspora delbrueckii|	0.8164	1705	0.0000	9.0323	154	2	12	0.0577	0	3.06
Phytophthora infestans|	7.7320	2896	0.0000	5.1796	150	119	104	0.0313	0	38.71
Piscine myocarditis-like|	0.5485	6038	0.0000	4.6539	281	17	16	0.0660	0	3.00
Macaca nemestrina|	0.0014	137448	0.0000	0.1055	145	1	2	0.5187	0	0.04
Hepatitis C|	5.3130	9646	0.0000	1.5550	150	306	207	0.0801	0	49.90
Saimiriine herpesvirus|	0.0018	112930	0.0000	0.1107	125	1	1	0.3831	0	0.06
Pestivirus giraffe-1|	0.0874	12602	0.0000	2.0632	260	6	5	0.5086	0	0.66
Hepatitis C|	32.0720	9711	0.0000	1.6991	165	1689	1426	0.0823	0	304.19
Hepatitis C|	0.4263	9628	0.0000	1.4437	139	31	10	0.0765	0	4.03
Bacillus phage|	7.5866	24320	0.0000	0.8306	202	897	941	0.0264	0	105.22
Volepox virus|	0.0003	217124	0.0000	0.0258	56	1	0	0.5000	0	0.02
Rosellinia necatrix|	0.3541	2499	0.0000	4.4018	110	7	2	0.0511	0	1.71
BeAn 58058|	9.2343	163005	0.0000	0.2110	344	7369	7810	0.5554	0	271.49
Orgyia pseudotsugata|	0.0081	131995	0.0000	0.1371	181	5	6	0.5098	0	0.25
Enterobacteria phage|	0.0340	43769	0.0000	0.6055	265	10	5	0.4350	0	0.47
Molluscum contagiosum|	0.0021	190289	0.0000	0.0599	114	4	0	0.6980	0	0.09
Saccharomyces cerevisiae|	47.0866	1801	0.0000	10.1055	182	399	446	0.0347	0	184.04
Oyster mushroom|	0.0175	5784	0.0000	1.7462	101	0	1	0.0297	0	0.13
Encephalomyocarditis virus|	0.9395	7835	0.0000	1.8762	147	72	1	0.9871	0	7.83
Choristoneura occidentalis|	0.0100	104710	0.0000	0.1633	171	8	7	0.4516	0	0.35
Rabbit vesivirus|	0.2053	8380	0.0000	1.3604	114	13	5	0.1199	0	1.85
Glypta fumiferanae|	0.3200	3141	0.0000	5.1894	163	4	6	0.5244	0	1.50
Glypta fumiferanae|	0.0521	3821	0.0000	2.6695	102	0	2	0.5200	0	0.32
Cyprinid herpesvirus|	0.0029	295146	0.0000	0.1142	337	6	3	0.4621	0	0.10
Woolly monkey|	0.0748	5159	0.0000	4.8265	249	2	2	0.6166	0	0.35
Marine RNA|	0.0332	8926	0.0000	1.2548	112	1	2	0.0662	0	0.30
Paramecium bursaria|	0.0006	344691	0.0000	0.0334	115	1	1	0.4307	0	0.03
Bacillus phage|	0.0015	132562	0.0000	0.1041	138	1	1	0.0754	0	0.05
Primula malacoides|	0.0431	2344	0.0000	4.3089	101	0	1	0.0792	0	0.20
Synechococcus phage|	0.0004	232878	0.0000	0.0434	101	0	1	0.3960	0	0.02
Taterapox virus|	0.0005	198050	0.0000	0.0500	99	0	1	0.2871	0	0.02
Cyprinid herpesvirus|	0.0007	291144	0.0000	0.0388	113	1	1	0.5842	0	0.04
Caviid herpesvirus|	0.0002	233501	0.0000	0.0236	55	1	0	0.0638	0	0.02
Aotine herpesvirus|	0.0004	219474	0.0000	0.0424	93	0	1	0.4947	0	0.02
Enterobacteria phage|	0.0021	94800	0.0000	0.1867	177	1	1	0.4356	0	0.05
Ictalurid herpesvirus|	0.0029	134226	0.0000	0.1676	225	2	2	0.5224	0	0.07
White clover|	0.1273	2348	0.0000	4.3867	103	0	3	0.0963	0	0.60
Red clover|	0.0429	2353	0.0000	4.2924	101	0	1	0.0400	0	0.20
Hop trefoil|	0.1711	2349	0.0000	4.5126	106	1	3	0.0498	0	0.80
Abalone herpesvirus|	0.0009	211518	0.0000	0.0411	87	1	2	0.4681	0	0.05
